{
    "Width": 400,
    "Height": 300,
    "Description": "",
    "AutoExecuteOnChange": false,
    "ComputationDescription": {
        "DataframeInputModels": [
            {
                "Name": "input",
                "DisplayName": "input"
            }
        ],
        "DataframeOutputModels": [
            {
                "Name": "output",
                "DisplayName": "output"
            }
        ],
        "AttributeConfigGroupInputDescription": {
            "x": {
                "Name": "x",
                "FromDataframe": "input",
                "DisplayName": "x",
                "MaxNr": 1,
                "MinNr": 1,
                "AllowNumeric": true,
                "AllowStrings": false,
                "AllowTimestamps": false,
                "AllowBooleans": false,
                "AllowNull": false
            },
            "y": {
                "Name": "y",
                "FromDataframe": "input",
                "DisplayName": "y",
                "MaxNr": 1,
                "MinNr": 1,
                "AllowNumeric": true,
                "AllowStrings": false,
                "AllowTimestamps": false,
                "AllowBooleans": false,
                "AllowNull": false
            }
        },
        "ValueInputDescription": {
            "style": {
                "DisplayName": "style",
                "__discriminator": "StringValueInputDescription",
                "DefaultValue": "scatter"
            }
        }
    },
    "InputUI": [
        {
            "Id": "x",
            "AttributeConfigGroupInputName": "x",
            "Icon": "fas fa-bullseye",
            "__discriminator": "AttributeSelectorInputUIType"
        },
        {
            "Id": "y",
            "AttributeConfigGroupInputName": "y",
            "Icon": "fas fa-bullseye",
            "__discriminator": "AttributeSelectorInputUIType"
        },
        {
            "Id": "style",
            "ValueInputName": "style",
            "Icon": "fas fa-tag",
            "__discriminator": "StringValueInputUIType"
        }
    ]
}