{
    "Width": 400,
    "Height": 300,
    "Description": "",
    "AutoExecuteOnChange": false,
    "ComputationDescription": {
        "DataframeInputModels": [
            {
                "Name": "input",
                "DisplayName": "input"
            }
        ],
        "DataframeOutputModels": [
            {
                "Name": "output",
                "DisplayName": "output"
            }
        ],
        "AttributeConfigGroupInputDescription": {
            "user_id": {
                "Name": "user_id",
                "FromDataframe": "input",
                "DisplayName": "User ID",
                "MaxNr": 1,
                "MinNr": 1,
                "AllowNumeric": true,
                "AllowStrings": true,
                "AllowTimestamps": false,
                "AllowBooleans": true,
                "AllowNull": false
            },
            "timestamp": {
                "Name": "timestamp",
                "FromDataframe": "input",
                "DisplayName": "Timestamp",
                "MaxNr": 1,
                "MinNr": 1,
                "AllowNumeric": false,
                "AllowStrings": false,
                "AllowTimestamps": true,
                "AllowBooleans": false,
                "AllowNull": false
            },
            "event": {
                "Name": "event",
                "FromDataframe": "input",
                "DisplayName": "Event",
                "MaxNr": 1,
                "MinNr": 1,
                "AllowNumeric": false,
                "AllowStrings": true,
                "AllowTimestamps": false,
                "AllowBooleans": false,
                "AllowNull": false
            }
        },
        "ValueInputDescription": {
            "threshold": {
                "DisplayName": "Threshold",
                "__discriminator": "NumberValueInputDescription",
                "DefaultValue": 1,
                "MaxValue": 100,
                "MinValue": 0
            }
        }
    },
    "InputUI": [
        {
            "Id": "user_id",
            "AttributeConfigGroupInputName": "user_id",
            "When": "true",
            "Icon": "fas fa-bullseye",
            "__discriminator": "AttributeSelectorInputUIType"
        },
        {
            "Id": "event",
            "AttributeConfigGroupInputName": "event",
            "When": "true",
            "Icon": "fas fa-fas fa-tag",
            "__discriminator": "AttributeSelectorInputUIType"
        },
        { 
            "Id": "timestamp",
            "AttributeConfigGroupInputName": "timestamp",
            "When": "true",
            "Icon": "fas fa-fa-regular fa-clock",
            "__discriminator": "AttributeSelectorInputUIType"
        }, {
            "Id": "threshold",
            "ValueInputName": "threshold",
            "When": "true",
            "Icon": "fas fa-percentage",
            "__discriminator": "NumberValueInputUIType"
        }
    ]
}