{
    "Width": 400,
    "Height": 300,
    "Description": "",
    "AutoExecuteOnChange": false,
    "ComputationDescription": {
        "DataframeInputModels": [
            {
                "Name": "input",
                "DisplayName": "input"
            }
        ],
        "DataframeOutputModels": [
            {
                "Name": "output",
                "DisplayName": "output"
            }
        ],
        "AttributeConfigGroupInputDescription": {
            "target": {
                "Name": "target",
                "FromDataframe": "input",
                "DisplayName": "target",
                "MaxNr": 1,
                "MinNr": 1,
                "AllowNumeric": true,
                "AllowStrings": true,
                "AllowTimestamps": false,
                "AllowBooleans": true,
                "AllowNull": false
            },
            "features": {
                "Name": "features",
                "FromDataframe": "input",
                "DisplayName": "features",
                "MaxNr": -1,
                "MinNr": 1,
                "AllowNumeric": true,
                "AllowStrings": true,
                "AllowTimestamps": true,
                "AllowBooleans": true,
                "AllowNull": false
            }
        },
        "ValueInputDescription": {
            "runtime in seconds": {
                "DisplayName": "runtime in seconds",
                "__discriminator": "NumberValueInputDescription",
                "DefaultValue": 30,
                "MaxValue": 598,
                "MinValue": 30
            },
            "refresh token": {
                "DisplayName": "refresh token",
                "__discriminator": "StringValueInputDescription",
                "DefaultValue": ""
            },
            "cluster name": {
                "DisplayName": "cluster name",
                "__discriminator": "StringValueInputDescription",
                "DefaultValue": ""
            },
            "cluster owner": {
                "DisplayName": "cluster owner",
                "__discriminator": "StringValueInputDescription",
                "DefaultValue": ""
            }
        }
    },
    "InputUI": [
        {
            "Id": "target",
            "AttributeConfigGroupInputName": "target",
            "When": "true",
            "Icon": "fas fa-bullseye",
            "__discriminator": "AttributeSelectorInputUIType"
        },
        {
            "Id": "features",
            "AttributeConfigGroupInputName": "features",
            "When": "true",
            "Icon": "fas fa-fas fa-tag",
            "__discriminator": "AttributeSelectorInputUIType"
        },
        {
            "Id": "runtime in seconds",
            "ValueInputName": "runtime in seconds",
            "When": "true",
            "Icon": "fas fa-fa-regular fa-clock",
            "__discriminator": "NumberValueInputUIType"
        },
        {
            "Id": "refresh token",
            "ValueInputName": "refresh token",
            "When": "true",
            "Icon": "fas fa-fa-solid fa-key",
            "__discriminator": "StringValueInputUIType"
        },
        {
            "Id": "cluster name",
            "ValueInputName": "cluster name",
            "When": "true",
            "Icon": "fas fa-fas fa-network-wired",
            "__discriminator": "StringValueInputUIType"
        },
        {
            "Id": "cluster owner",
            "ValueInputName": "cluster owner",
            "When": "true",
            "Icon": "fas fa-far fa-user",
            "__discriminator": "StringValueInputUIType"
        }
    ]
}